{ "name":"Altering the Course",
"ring":"Void",
"mastery":"2",
"range":"Personal",
"area":"Self",
"duration":"1 minute",
"raises":"Duration (+1 minute)",
"description":"Ishiken have a much greater capacity to draw upon the Void than others, and may do it consciously rather than unconsciously. You may spend multiple Void Points on any roll made within the duration of this spell. It still must be a roll on which the expenditure of Void Points is allowable (no damage rolls may be augmented via this spell, for example). "}
