{ "name":"Armor of Earth",
"ring":"Earth",
"mastery":"1",
"keywords":"Battle, Defense",
"range":"Personal",
"area":"Self",
"duration":"10 rounds",
"raises":"Duration (+2 rounds)",
"description":"This spell infuses the caster's body with the strength of Earth, weakening the force of any physical or magical attack which strikes him. For the duration of the spell, you gain Reduction in an amount equal to your Earth Ring + School Rank. However, this infusion of Earth slows your movements — your Water is considered 1 Rank lower for purposes of movement while you are under the effects of this spell. "}
