{ "name":"Be the Mountain",
"ring":"Earth",
"mastery":"2",
"keywords":"Defense",
"range":"30'",
"area":"One target creature",
"duration":"4 rounds",
"raises":"Duration (+1 Round)",
"description":"A variant ol the spell Armor of Earth, designed to protect allies, this prayer causes the Earth kami to envelop the target with their embrace, covering his skin with a stony barrier that repels physical blows. The target gains Reduction of a value equal to 5x the caster's School Rank, to a maximum of 20, but cannot take Simple Move Actions for the duration of the spell (Free Move Actions are still allowed). Only a willing ally can be targeted with this spell. "}
