{ "name":"Blessed Wind",
"ring":"Air",
"mastery":"1",
"keywords":"Defense",
"range":"Personal",
"area":"10' radius around the caster",
"duration":"Concentration",
"raises":"Special (you may target another with this spell with 3 Raises)",
"description":"You summon a swirling aura of winds to protect you from ranged attacks. The buffeting winds deflect arrows and other projectiles. While you maintain your concentration, this spell adds +15 to your Armor TN versus all non-magical ranged attacks. "}
