{ "name":"Blood and Darkness",
"ring":"Air",
"mastery":"1",
"keywords":"Maho",
"range":"Centered on caster",
"area":"30' radius",
"duration":"10 rounds",
"raises":"Area (5' additional radius per Raise), Duration (+2 rounds per Raise)",
"description":"This spell plunges the air around the caster into an unnatural visual obscurement, either pitcb black or dark blood red as the caster desires, as the kansen literally block the vision of everyone in the area of effect. Everyone who enters or remains within the spell's area of effect, except for the caster, is considered to be Blind until they move out of the area of effect. The caster can see normally — the kansen recognize their master and do not block his vision. The zone of obscurement does not move once it is created. Magical effects or Shadowlands powers that overcome blindness can see through the obfuscation, but otherwise there is no way to overcome the effect until the spell expires. "}
