{ "name":"Blood Rite",
"ring":"Earth",
"mastery":"1",
"keywords":"Maho",
"range":"Touch",
"area":"One target person/creature",
"duration":"10 minutes",
"raises":"Duration (+2 minutes per Raise), Special (heals an extra +1k0 per Raise)",
"description":"A deceptive spell which allows many maho-tsukai to masquerade as noble priests, healing the injured. This spell convinces the kansen to flow into the target, stimulating his flesh to heal and knit itself closed, and stimulating his body to feats of physical prowess. The target immediately heals 1k1 Wounds, and for the duration of the spell one of his physical Traits (chosen by the caster) is treated as one Rank higher. (This can award a temporary increase in Wounds if it causes the target's Earth Ring to increase, but the Wounds will drop back to normal when the spell expires, and this may result in the death of the target if he has taken sufficient injury.) However, there is a cruel price for this assistance from the kansen: the target of the spell immediately gains 1k1 points of Shadowlands Taint. "}
