{ "name":"Bo of Water",
"ring":"Water",
"mastery":"1",
"keywords":"Craft",
"range":"Personal or 20' (see below)",
"area":"One created weapon",
"duration":"5 minutes",
"raises":"Damage (+1k0), Duration (+5 minutes), Range (+5 feet)",
"description":"You summon a staff of pure water, as rigid as the real thing despite its fluid nature. The weapon's default form is a bo, but one Raise can change its form to any other staff of your choosing. The weapon has DR 1k2. If you do not possess the Staves Skill, you may instead use your School Rank in its place. If you do possess the Staves Skill, using this weapon grants you one Free Raise that can only be used on the Knockdown Maneuver. This weapon disappears if it is lost from your hand. Instead of summoning the bo for yourself, you may cause it to appear in the hands of an ally within 20 feet. He is treated as the caster for all purposes of the spell, but he does not gain the Free Raise bonus. "}
