{ "name":"Call the Spirit",
"ring":"Air",
"mastery":"4",
"range":"Special",
"area":"Target spirit",
"duration":"5 minutes",
"raises":"Duration (+1 minute)",
"description":"Essentially an extremely powerful, specific form of the basic spell Summon, Call the Spirit allows a shugenja to summon any particular spirit, regardless of its realm, to have a discussion. You may use this spell to summon any spirit from any of the spirit realms, although realm denizens that are not spirits (such as Fortunes) are immune. If you know something specific about the spirit, either having seen it before or having intimate knowledge of its actions (for example, the spirit that killed my father), you may summon that spirit in particular. The nature of the spell prevents the spirit from attacking you unless you attack first, but it will not necessarily be friendly. The spirit disappears as soon as the spell's duration expires. This spell can potentially summon extremely dangerous creatures, such as oni, and should be used with caution. "}
