{ "name":"Caress of Fu Leng",
"ring":"Earth",
"mastery":"2",
"keywords":"Maho",
"range":"50'",
"area":"One target object",
"duration":"Instantaneous",
"raises":"Range (+ 10' per Raise)",
"description":"This spell summons dark kansen to consume and destroy the substance most inimical to them — jade. The caster may target any one jade item, weapon, or object within the spell's range (he must be able to see it). The jade is instantly corrupted, its blessed properties annihilated by an overwhelming saturation of Taint. Only a foul black slime is left behind. This spell cannot affect an awakened ncnzuranai (magical relic) that contains jade. "}
