{ "name":"Chains of Jigoku",
"ring":"Earth",
"mastery":"4",
"keywords":"Maho",
"range":"50'",
"area":"One creature or person",
"duration":"10 minutes",
"raises":"Duration (+5 minutes per Raise), Range (+10' per Raise), Special (+1k0 per Raise to caster's roll to contain the prisoner)",
"description":"A dark counterpoint to the binding spells practiced by Earth shugenja, this spell summons the kansen to bind and trap living creatures (it cannot affect the undead). When the spell is cast, manacles of dark, rusty iron burst from the ground and ensnare the target, trapping him and holding him in place. The target is rendered immobile and helpless, unable to take any physical actions other than to try to break free (although he can still speak). The victim can only break free by making a Contested Roll of his Strength against the Earth of the maho tsukai who cast the spell. (The caster may take Raises to gain additional unkept dice on this roll.) When the spell expires, the manacles melt away into a disgusting black ooze. "}
