{ "name":"Cloak of the Miya",
"ring":"Water",
"mastery":"2",
"keywords":"Defense",
"range":"Personal",
"area":"Self",
"duration":"5 rounds",
"raises":"Duration (+1 round)",
"description":"You wrap yourself in the protective embrace of the wave. Your Armor TN is increased by an amount equal to your Water Ring plus your School Rank for the duration of this spell. "}
