{ "name":"Cloud the Mind",
"ring":"Air",
"mastery":"5",
"range":"Touch",
"area":"One target individual",
"duration":"Permanent",
"raises":"Special (+1 day of effect)",
"description":"This extremely invasive spell is considered blasphemous by most honorable shugenja, and many respectable shugenja orders would find its use reason for excommunication if not outright execution. This spell calls upon the air kami to befuddle and dismay a target, invading their mind and influencing their ability to recall exactly what happened to them over a certain length of time. When this spell is successfully cast against a target, you must succeed at a Contested Roll using your Air versus the target's Earth. If successful, the targets memories are disrupted, and they forget what has happened to them over the course of the past week (five days). This information is completely lost to the target. What's more, the spell renders them extremely susceptible to suggestion, and you can tell them what happened to them over the course of the missing time. This allows unscrupulous shugenja to exploit others and essentially give them false memories, although certain individuals are highly resistant to this manner of manipulation. It is possible to determine that an individual was the target of this spell through use of the Commune spell, but it requires that the kami be specifically asked if they can detect any such manipulation. "}
