{ "name":"Curse of the Unblinking Eye",
"ring":"Air",
"mastery":"2",
"keywords":"Maho",
"range":"100'",
"area":"One target creature",
"duration":"2 days",
"raises":"Duration (+1 day per 2 Raises, maximum of 7 days duration), Targets (+1 target per 2 Raises)",
"description":"This spell curses the target with the attentions of malignant Air kansen who prevent him from sleeping. For the duration of the spell, the victim cannot sleep, and thus cannot recover Void points or spell slots from rest. Further, for each day the victim goes without sleep, he must make a Raw Stamina roll at a TN equal to 5 + (5x number of nights without sleep) or suffer the effects of being Fatigued. "}
