{ "name":"Death Beyond Life",
"ring":"Earth",
"mastery":"3",
"keywords":"Maho",
"range":"Touch",
"area":"One target person",
"duration":"24 hours",
"raises":"Duration (+24 hours per Raise)",
"description":"This spell is among the most secret spells employed by the leaders of the Bloodspeaker cult, and is quite rare among maho-tsukai outside of that elite group. It allows the caster to literally cheat death, for himself or another person. The spell must be cast on its target while still alive, and its protective effect normally lasts 24 hours, although skilled spellcasters can extend it. If the target dies within the duration of the spell, powerful kansen will carry his soul away, preventing it from passing on to Meido for judgment. Exactly eight hours after death, they will bring back the soul and re-infuse it into the body, and the target rises from the dead at the Down Wound Rank. Returning from the dead in this way inflicts a full Rank of Taint on the target, due to his soul having been in the care of kansen for eight hours. This blasphemous resurrection will work as long as the target's corpse is still intact — even if limbs have been lost or the head severed, the body will reassemble itself when the kansen return. The only way to prevent the resurrection is to scatter the body parts or burn the corpse to ashes. "}
