{ "name":"Death of Flame",
"ring":"Fire",
"mastery":"4",
"range":"100'",
"area":"One target",
"duration":"5 Rounds",
"raises":"None",
"description":"This spell brings the anger of Fire on the target, suppressing his elemental Fire and lowering both his Agility and his Intelligence Ranks by an amount equal to your Fire Ring, to a minimum of one. If you maintain Concentration for the duration of the spell's effect, the target cannot escape its effects. If you do not maintain Concentration, each Round at the start of his Turn the target may make a contested Fire roll against you (using his original, unmodified Fire Ring) to end the spell's effect. "}
