{ "name":"Defense of the Fire Storm",
"ring":"Fire",
"mastery":"4",
"keywords":"Defense",
"range":"Touch",
"area":"One target armor",
"duration":"5 Rounds",
"raises":"Duration (+1 Round)",
"description":"A more potent form of spells like Shining light, this prayer summons forth an aura of magical flames from a suit of armor, surrounding and protecting the armor's wearer. These flames do not harm the armor's bearer and do not harm living things. However, all wooden weapons (including arrows and many polearms) burn instantly before they reach the target, doing no damage. The flames also impede sight to the target, increasing his Armor TN by 20. "}
