{ "name":"Destructive Wave",
"ring":"Fire",
"mastery":"5",
"range":"Personal",
"area":"25' radius",
"duration":"Instantaneous",
"raises":"Damage (+1k1 per two Raises)",
"description":"A highly potent offensive spell, originally devised by the Isawa Elemental Masters, this prayer summons up a great mass of Fire kami, which roll outward from the caster in a wave of searing flames. Every target within the area of effect, whether friendly or hostile, takes 7k7 Wounds, for the raging flames make no distinction between ally and enemy. You alone do not take damage from the spell. "}
