{ "name":"Disrupt the Limb",
"ring":"Water",
"mastery":"1",
"keywords":"Maho",
"range":"50'",
"area":"One target person's limb",
"duration":"10 rounds",
"raises":"Duration (+2 rounds per Raise), Range (+ 10, per Raise)",
"description":"This curse causes the muscles of a target limb — an arm or leg of the caster's choice — to be afflicted with pain, weakness, and tremors for the duration of the spell. All rolls for physical actions taken with that limb for the duration of the spell suffer a +15 TN penalty. In addition, if the target limb is a leg, the victim is considered to be under the effects of the Lame Disadvantage for the duration of the spell. "}
