{ "name":"Earth's Protection",
"ring":"Earth",
"mastery":"3",
"keywords":"Defense, Wards",
"range":"Personal",
"area":"10' radius from caster",
"duration":"Concentration",
"raises":"Area (+5' radius per 2 Raises, to maximum of 30' radius), Special (damage reduced by an additional +1k1 for 2 Raises)",
"description":"This spell calls on the spirits of Earth to protect the area around the caster from the effects of the other three Elements (Air, Fire, and Water) for a short time. While the caster concentrates on maintaining the favor of the Earth spirits, the effects of spells which call on those other three elements are mitigated. Any hostile Air, Fire, or Water spell cast within the area of Earth's Protection, or extending its effects into that area, will suffer a +10 TN penalty to the Spell Casting roll. In addition, any damage which those spells inflict on creatures within Earth's Protection will be reduced by 1k1 (to a minimum of 1k1). "}
