{ "name":"Ebbing Strength",
"ring":"Water",
"mastery":"1",
"keywords":"Defense",
"range":"20",
"area":"One target creature",
"duration":"3 rounds",
"raises":"Duration (+1 round), Range (+5')",
"description":"Energy flows through the universe just as water flows through the mortal shell. You may send your energy to another, weakening yourself and strengthening them in the process. You may reduce any one of your Physical Traits by an amount up to your School Rank. The target of this spell increases the same Physical Trait by the same amount. If your Trait is reduced to 0 as a result of this spell, you immediately fall unconscious and the spell's duration is reduced to 1 round. No Trait may be enhanced above double its normal rank by this spell. "}
