{ "name":"Enticing Danc of the Flam",
"ring":"Fire",
"mastery":"2",
"range":"50'",
"area":"20' radius",
"duration":"2 rounds",
"raises":"Duration (+1 round)",
"description":"A more potent version of The Fires That Cleanse, this spell keeps the Fire kami under tighter control and persuades them to remain present for longer. If the spell is cast successfully. Fire kami erupt into a violent, ferocious dance at a location of your choice, igniting that area into flames. Every target in the area takes 3k2 Wounds on the Round the spell takes effect. At the beginning of each subsequent Round, if the spell is still active, every target still in the affected area takes an additional 2k1 Wounds. "}
