{ "name":"Envious Flames",
"ring":"Fire",
"mastery":"1",
"range":"30'",
"area":"One target",
"duration":"Instantaneous",
"raises":"None",
"description":"Fire's most basic power is destruction, and summoned Fire spirits can easily be unleashed on one's enemies. This spell invokes a single Fire kami, which lances toward the target, hitting unerringly so long as the target is within range. The spell deals 2k2 Wounds. The burns this spell inflicts are quite painful, and if the spell targets a shugenja who is casting a spell, his Willpower roll has a TN of 20 plus the damage dealt, instead of the normal 10 plus damage dealt. "}
