{ "name":"Essence of Undeath",
"ring":"Earth",
"mastery":"3",
"keywords":"Maho",
"range":"50'",
"area":"One humanoid corpse",
"duration":"Indefinite",
"raises":"Range (+20' per Raise), Targets (+1 target per 3 Raises)",
"description":"A more powerful form of undead summoning, this spell animates a dead corpse into an undead warrior. Unlike the minor, temporary zombies created by Summon Undead Champion, this spell binds a kansen into a dead body, creating a powerful Tainted revenant which serves the caster to the best of its ability. The resulting creature is described (as “Undead Revenant”) in the Book of Void, page 330. The revenant will last indefinitely (until destroyed), and The Taint infusing its body prevents it from decaying further. It cannot speak, hut can understand and obey any verbal command. It will serve the maho-tsukai who summoned it until it is physically destroyed. "}
