{ "name":"Essence of Jade",
"ring":"Earth",
"mastery":"6",
"keywords":"Defense, Jade",
"range":"30'",
"area":"One target creature",
"duration":"10 rounds",
"raises":"Duration (+1 round), Range (+5'), Targets (+1 target for 2 Raises, maximum of 3 total targets)",
"description":"This spell calls on the purity of jade to protect its targets against the power of Jigoku, whether manifested as Taint or as the dreaded magic known as maho. The target radiates the sacred green light ofjade, and while the spell lasts, he can not gain the Shadowlands Taint and is completely immune to the effects of all maho spells. This spell cannot be cast on anyone who possesses at least one full Rank of Taint, for the pure jade spirits will recoil from such a corrupt individual, immediately alerting the caster to this individual's Tainted nature. "}
