{ "name":"Ever-Changing Waves",
"ring":"Water",
"mastery":"5",
"keywords":"Illusion",
"range":"Personal",
"area":"Self",
"duration":"1 hour",
"raises":"Duration (+1 hour)",
"description":"Ultimate command over Water can allow flesh to flow like liquid. This spell allows you to physically alter your mortal body, changing your shape to match that of another natural creature (see the Book of the Void for a list of the more common natural creatures found in Rokugan). While in this form, you keep your Mental Traits. For Physical Traits, you keep whichever is higher. yours or those of the animal into which you have transformed. Other natural abilities are gained as well, including natural weapons or sensory abilities. Some traditionalist shugenja sects look down upon this spell as unclean. "}
