{ "name":"Everburning Rage",
"ring":"Fire",
"mastery":"5",
"range":"25'",
"area":"One target",
"duration":"1 Round",
"raises":"Duration (+1 Round), Targets (+1)",
"description":"A powerful curse that infuses the target's body with angry Fire spirits, wracking him with pain as the kami sear his nerves and ligaments. For the duration of the spell, the victim is considered to be at the Down Wound Level and suffers all associated penalties and conditions, although he takes no actual Wounds from the spell. When the spell expires, the pain instantly ceases and the target may stand up as if nothing had happened. This spell is somewhat controversial with some shugenja schools, particularly the more peaceful ones, since it amounts to little more than the deliberate infliction of pain. A few shugenja have even noted certain disturbing similarities between this spell's effects and those of certain maho curses. "}
