{ "name":"Flow Through the Void",
"ring":"Void",
"mastery":"1",
"range":"Touch",
"area":"Up to one cubic foot of pure elemental matter",
"duration":"Permanent",
"raises":"Area (+1 cubic foot)",
"description":"In the Void, all things are equal, all one and none. By tapping into this connection, you may transform a small amount of pure 1emental matter — water, fire, air, or earth in the form of dirt  or soil — into any one other element. "}
