{ "name":"Heart of the Water Dragon",
"ring":"Water",
"mastery":"4",
"range":"25'",
"area":"Target individuals equal to caster's School Rank (may include the caster)",
"duration":"I round per School Rank",
"raises":"Duration (+1 round), Special (+1k0 healed per two Raises)",
"description":"The Water Dragon is a benevolent entity, and his blessings are powerful. Any time that a target of this spell suffers damage during the duration, he instantly regains 1k1 Wounds. "}
