{ "name":"Hiden Visage",
"ring":"Air",
"mastery":"2",
"keywords":"Illusion",
"range":"Personal",
"area":"Self",
"duration":"5 minutes",
"raises":"(another person in line of sight can be targeted by this spell by making three Raises), Duration (+5 minutes)",
"description":"Air kami are mischievous and capricious, and enjoy anything they perceive as a joke. You may call upon them to create a subtle illusion, altering your facial features just enough that you appear to be a different person. This spell does not allow you to impersonate specific individuals, or even people radically different from you. You appear as a person of the same age, build, race, and gender. The differences are subtle, enough so that you could be mistaken for your own brother or cousin. "}
