{ "name":"Hurried Steps",
"ring":"Fire",
"mastery":"2",
"range":"Personal",
"area":"Self",
"duration":"2 rounds (see below)",
"raises":"None",
"description":"Fire is the element of thought, and thought is swift indeed. You draw upon the speed of the Fire kami to aid you in the next spell you cast. The casting time of the next Fire spell you cast is reduced by 4 Rounds. If the next spell is Mastery Level 3 or lower, it casts instantaneously as a Simple Action. If you do not begin casting the new spell within the next 2 Rounds, however, the benefit of Hurried Steps elapses. "}
