{ "name":"Know the Mind",
"ring":"Air",
"mastery":"4",
"range":"10'",
"area":"Target individual",
"duration":"3 rounds",
"raises":"Duration (+1 round), Range (+5')",
"description":"Although the ultimate secrets of the human mind are hidden even to the winds, air kami can pluck the most immedidiate thoughts from the minds of others and whisper them to those who carry their favor. For the duration of this spell, you essentially hear the surface thoughts of the spell's target. You oniy learn things they are actively thinking about. For example, if you asked the name of the target's daughter, that name would appear in their mind instantly even if they had no intention of speaking it aloud. A Contested Roll using your Perception against the target's Awareness will also allow you to assess their true emotional state, regardless of how they appear physically. "}
