{ "name":"Legacy of the Dark One",
"ring":"Air",
"mastery":"1",
"keywords":"Maho",
"range":"100'",
"area":"One target person/creature",
"duration":"5 rounds",
"raises":"Duration (+1 round per Raise), Targets (+1 target per Raise), Special (1 additional Void point per 2 Raises)",
"description":"This subtle maho spell causes distracting kansen to cluster around the target, disrupting his connection to the true Void. The target immediately loses one Void point, and cannot regain it for the duration of the spell. "}
