{ "name":"Legacy of Kaze-no-Kami",
"ring":"Air",
"mastery":"1",
"keywords":"Craft",
"range":"School Rank x 10 miles",
"area":"One known individual within range",
"duration":"Special",
"raises":"Area (+1 individual), Range (+10 miles)",
"description":"You are able to call upon the spirits of the wind to take form as a bird and carry a message for you. The bird that is created by this spell appears perfectly normal in all regards, but if it takes any damage it dissipates into wind immediately, ending the spell. Upon creating the bird, you may speak to it, giving it a spoken message of up to one minute in length. The bird will then fly away to deliver the message to the person (or persons) specified when the spell is cast. The bird will fly to their location, deliver the message via a whisper (it can be overheard by others, but not easily), and then disappear. If the bird is unable to reach the individual, but they are within range (if they are within a building with no windows, for instance) it will remain outside waiting for up to one week before disappearing. If the person specified by the spell is not within range, the bird will fly away in a random direction and disappear when it is out of your line of sight. "}
