{ "name":"Legion of the Moon",
"ring":"Air",
"mastery":"5",
"keywords":"Illusion",
"range":"Personal",
"area":"10' radius fror caster",
"duration":"5 minutes",
"raises":"Area (+5'), Duration (+1 minute)",
"description":"The Moon can reveal what is hidden, but also conceal those who receive its blessings. You may summon the greater blessing of the Moon and envelop a large group of people within it completely obscuring them from sight. Every individual you choose within the area of effect of this spell is rendered invisible to all normal senses for the duration of the spell. Those within the area that you choose to exclude are not affected. Anyone affected by the spell who performs any action that physically interacts with an unaffected individual is imnwdiately excluded from the spell effect. "}
