{ "name":"Light of the Sun",
"ring":"Fire",
"mastery":"5",
"keywords":"Jade",
"range":"100'",
"area":"30' radius",
"duration":"10 rounds",
"raises":"None",
"description":"This prayer invokes the power of the Sun, worshipped and venerated throughout Rokugan, and is an especial favorite among the Moshi family, although shugenja all across the Empire have learned it. The spell calls down a concentrated beam of pure sunlight to punish the unworthy. Everyone caught in the area of effect takes 2k2 Wounds per Round from the intense heat. Human targets (only) take an additional 2k1 Wounds for every Honor Rank they are below 4, and an additional 2k2 Wounds if they possess at least 1 Rank of the Shadowlands Taint or are controlled by the Lying Darkness. Human targets who have an Honor Rank of 0 are Blinded for a number of Rounds equal to your Fire Ring. "}
