{ "name":"Mask of Wind",
"ring":"Air",
"mastery":"3",
"keywords":"Illusion",
"range":"Personal",
"area":"Self",
"duration":"1 hour",
"raises":"Area (may target another with two Raises), Duration (+10 minutes)",
"description":"A skilled shugenja can petition the kami to create incredibly elaborate illusions to obscure one's identity and appearance. You may use this spell to adopt the appearance of any humanoid creature of approximately the same size, up to one foot taller or shorter than you. You could use this spell to assume the guise of a kenku. for example, because they are roughly the same size as humans. A goblin or an ogre would be impossible, however, because they are too short and too large, respectively. "}
