{ "name":"Mists of Illusion",
"ring":"Air",
"mastery":"2",
"keywords":"Craft, Illusion",
"range":"20'",
"area":"10 radius",
"duration":"I minute",
"raises":"Area (+5'), Duration (+1 minute). Range (+5')",
"description":"With greater fluency with the kami comes the ability to craft increasingly convincing images from the stuff of the wind itself. You may create illusions of any object, individual, or image that you can imagine. These images are stationary, and they must fit within the spell's area of effect, but they can be as simple or complex as desired. These illusions are visual only, with no auditory component, no odors, etc. "}
