{ "name":"Near to Ice",
"ring":"Water",
"mastery":"3",
"range":"Touch",
"area":"One target individual",
"duration":"5 rounds",
"raises":"Duration (+1 round), Range (increased to 10' with 2 Raises)",
"description":"As water grows durable and resistant with the coming winter, so too can the water within the human form become sterner and more durable. The target of this spell has all current Wound Penalties negated for the duration of the spell. Any additional penalties incurred take full effect, using the difference between the negated penalty and the new penalty as the effective penalty incurred. Wounds are not healed by this effect, they simply cease to inhibit those suffering from them. "}
