{ "name":"Netsuke of Wind",
"ring":"Air",
"mastery":"4",
"keywords":"Craft, Illusion",
"range":"Touch",
"area":"One hand-held object",
"duration":"1 hour",
"raises":"Duration (+10 minutes)",
"description":"Although it requires great favor, the air kami are willing to coalesce into a solid form for a short period of time if they are fond enough of the priest asking them. You may create a small object out of the air itself, something that can be held in one or both hands and that does not weigh more than twenty pounds at the most. This creation is an illusion, but it can be used functionally, including inflicting damage if it is a weapon. The object disappears completely at the end of the spell's duration. "}
