{ "name":"Pain",
"ring":"Earth",
"mastery":"2",
"keywords":"Maho",
"range":"30'",
"area":"One target creature",
"duration":"1 round",
"raises":"Duration (+1 Round per Raises), Range (+5' per Raise), Targets (+1 target per 2 Raises)",
"description":"This spell wracks the target with intense physical pain, shooting up and down the limbs and through the torso. The target falls Prone, helpless with pain, and cannot act on his next Turn. In addition, the target must make a Willpower Trait Roll at TN 20 to avoid crying aloud in pain, which could cause a loss of Honor and/or Glory. "}
