{ "name":"Rejuvenating Vapors",
"ring":"Water",
"mastery":"2",
"range":"Touch",
"area":"One target individual",
"duration":"Instantaneous",
"raises":"Targets (one additional person per 2 Raises)",
"description":"Water washes away all that is impure, refreshing and reinvigorating all it touches. The target of this spell is instantly refreshed as if he had just arisen from a full night's sleep. This does not restore spent Void Points, but can eliminate fatigue and exhaustion. When used on a shugenja, this spell does restore the spell slots associated with the Void Ring (which can be used for any elements), but not the spell slots associated with other Rings. Abilities that characters may use a limited number of times per day are not refreshed by this spell. No individual can benefit from Rejuvenating Vapors more than once within a 24-hour period. "}
