{ "name":"Reversal of Fortunes",
"ring":"Water",
"mastery":"1",
"range":"10'",
"area":"One target individual",
"duration":"3 rounds",
"raises":"Duration (+1 round), Range (+5)",
"description":"Versatility is the domain of water, and those who carry its blessing reap the rewards. For the duration of this spell, the target may immediately re-roll any one roll per round. This must be done immediately after the first roll is completed, and the target may keep either result. "}
