{ "name":"Rise, Air",
"ring":"Air",
"mastery":"6",
"range":"30'",
"area":"One summoned spirit",
"duration":"Concentration",
"raises":"None",
"description":"The wind itself will take form to defend you. The ultimate actualization of the Summon spell, this spell summons a massive kami of pure air to serve you. It takes the form of a vaguely humanoid shape, roughly ten feet in height, with an indistinct outline visible only because of small debris caught up in its body. The kami may move up to l0x your Air per round, and generates powerful winds in a twenty foot radius around it that hinder movement, preventing anyone from making Simple Move Actions within its area of effect. The manifest kami is treated as if it has all Physical Traits equal to your Air Ring, and attacks with a Jiujitsu Skill Rank equal to half your Air Ring. Damage from these attacks has a DR equal to your Air Ring (for example, a spirit summoned by a shugenja with Air 6 would inflict 6k6 damage with its attacks). For purposes of taking damage, the spirit is considered to have Wounds as though it were a human with Earth equal to your Air Ring, but suffers no Wound penalties. It is Invulnerable (see the creature rules in the Book of Void for details of this ability). If it is successfully reduced to zero Wounds, it is dispelled. "}
