{ "name":"Secrets on the Wind",
"ring":"Air",
"mastery":"2",
"range":"10 miles",
"area":"20' radius",
"duration":"Concentration",
"raises":"Area (+5 radius), Range (+5 miles)",
"description":"The kami can carry whispers across an Empire, if properly entreated to do so. This spell requires you to perform a preparation ritual in order to cast it effectively. The ritual requires ten minutes of uninterrupted meditation in the area designated as the spell's area of effect. Any time within the 48 hours immediately following this ritual, you may cast this spell, and overhear anything being said in the prepared area. If your concentration is disrupted, the effect ends and may not be renewed without an additional preparation ritual. Only one area may he prepared via this ritual at one time. "}
