{ "name":"Sense",
"ring":"All",
"mastery":"1",
"range":"Personal",
"area":"50' radius from the caster",
"duration":"Instantaneous",
"raises":"Range (+10)",
"description":"This spell can be cast in any of the four standard elements. It allows the caster to sense the presence, quantity, and rough location of elemental spirits (not the evil spirits known as kansen) of that element within the range of the spell. This is most frequently applied when looking for spirits with which to Commune (see below), but can also be useful as a crude. basic location device. For example, a caster lost in the wilderness could cast Sense (Water) in hopes of locating a source of drinking water. "}
