{ "name":"Sharing the Strength of Many",
"ring":"Earth",
"mastery":"3",
"range":"30'",
"area":"One to six target persons within range",
"duration":"5 rounds",
"raises":"Duration (+1 round), Range (+5')",
"description":"This spell infuses its targets, up to six people (who can include the caster), with the power of Earth, allowing them each to call upo the Earth of their comrades to bolster their efforts. For the duration of the spell, the lowest Earth Ring Rank among all the targets is added to the total of all Ring, Trait, and Skill rolls (but not Spell Casting rolls) they make. "}
