{ "name":"Shining Light",
"ring":"Fire",
"mastery":"3",
"keywords":"Defense",
"range":"30'",
"area":"One target armor",
"duration":"10 rounds",
"raises":"Damage (+1k0 per two Raises), Duration (+2 Rounds)",
"description":"Another example of spells which can imbue Fire kami into items, this spell temporarily binds a Fire kami into a piece of armor (such as a helmet or chest plate). The armor emits a bright light that becomes blinding whenever the wearer is attacked. Any time the armor's wearer is attacked in melee, immediately afterward the opponent takes 2k2 Wounds and is Blinded until the Reactions Stage of the same Round. The spell has no effect on ranged attacks. "}
