{ "name":"Silent Waters",
"ring":"Water",
"mastery":"3",
"keywords":"Defense",
"range":"Personal",
"area":"Self",
"duration":"Variable",
"raises":"None",
"description":"The memory of the ocean is infinite, and its vast power can lay in wait for a very long time indeed. Upon completion of a successful casting of this spell, you may immediately cast a second spell of any element. This second spell must be a spell you can normally cast, and it must be of Mastery Level 3 or lower. If the second Spell Casting Roll is successful, the second spell is stored within you, and will not activate until a specific physical effect takes place, which you specify at the time of the casting. The spell's trigger could be that you speak a certain word, draw a blade, or fall in battle, for example. Whatever the trigger, when it occurs, the second spell immediately takes effect as if you had just finished casting the spell. A character may never benefit from multiple uses of Silent Waters at one time. If a second use of the spell is cast on the same individual, the current “stored spell is immediately dispelled and replaced with the new one. "}
