{ "name":"Sinful Dreams",
"ring":"Air",
"mastery":"1",
"keywords":"Maho",
"range":"300'",
"area":"One target intelligent creature",
"duration":"1 hour",
"raises":"Range (+50' per Raise), Special (1 additional Free Raise awarded per 2 Raises)",
"description":"This subtle and sinister spell causes the target to experience dreams of committing dark, sinful, and dishonorable acts. It can only be cast on a person who is either sleeping or in a situation where they could easily fall asleep (resting, meditating, etc). The caster need not know exactly where the target is located. So long as the target is within the spell's range, the spell will succeed. Due to the impact of these disturbing and distracting dreams, the victim of this spell becomes vulnerable to future manipulation by the caster. For the next 24 hours after the spell concludes, the caster gains a Free Raise on all Temptation and Intimidation rolls against the victim. The caster may Raise on the spell to increase the number of Free Raises awarded. "}
