{ "name":"Speed of the Waterfall",
"ring":"Water",
"mastery":"1",
"keywords":"Travel",
"range":"Touch",
"area":"One target individual or creature",
"duration":"1 hour",
"raises":"Duration (+10 minutes), Range (may increase to 10' for two Raises)",
"description":"Those filled with the essence of water find their movement far faster than ever before. The target of this spell may move a total distance per round equal to their Water x20' plus an amount equal to twice your Water Ring. This spell does not grant the target additional movement, it simply increases the maximum possible amount they can move during a Round for the duration of the spell. "}
