{ "name":"Spirit of the Water",
"ring":"Water",
"mastery":"1",
"keywords":"Battle",
"range":"20'",
"area":"One target individual",
"duration":"Instantaneous",
"raises":"Range (+ 5'), Special (Increase additional action to Complex for 5 Raises)",
"description":"The spirit of water is both fluid and rapid. The target gains one additional Simple Action during the Reactions Stage of the Round in which this spell is completed. This Action cannot be used to make an attack. "}
