{ "name":"Stealing the Soul",
"ring":"Earth",
"mastery":"4",
"keywords":"Maho",
"range":"1 mile",
"area":"One target person",
"duration":"1 day",
"raises":"Special (+1 additional Rank of Trait drain per 2 Raises)",
"description":"Unlike most maho spells, this one can be cast as a ritual, allowing multiple casters to participate. The Bloodspeaker Cult is especially infamous for using this spell to weaken and cripple their enemies. In order to cast this spell, the maho-tsukai must possess some kind of fetish or token of the intended target — a lock of hair, drop of blood, a personal item, etc. The spell inflicts a hostile and predatory kansen on the target, forcibly draining away his mental or physical abilities. The victim loses 1 Rank from a Trait of the caster's choice. Additional Ranks may be drained by taking Raises, but the Trait cannot be reduced below Rank 1. For each additional maho-tsukai participating in the spell, an additional Trait can be drained by the same amount. If this spell reduces the target's Earth Ring, it will also lower his Wounds at each Rank, possibly resulting in death if he has already suffered damage. "}
