{ "name":"Strength of Darkness",
"ring":"Fire",
"mastery":"5",
"keywords":"Maho",
"range":"Personal/Touch",
"area":"One target person",
"duration":"10 rounds",
"raises":"Duration (+1 Round per Raise), Special (+1 Rank to one physical Trait for every 2 Raises)",
"description":"This spell infuses the body of the target with the power of the Taint, unnaturally enhancing his physical prowess for a short time, allowing him to perform superhuman feats of speed, strength, and stamina. The recipient of the spell gains +1 Rank to his Earth Ring and his other three physical Traits for the duration of the spell. (The caster may Raise to increase the Traits, but the Earth Ring cannot be increased further.) He also gains the ability to see through any sort of visual impairment — fog, smoke, or even complete darkness. The physical evidence of this magical enhancement is obvious and grotesque — the target's flesh swells and bulges unnaturally and his eyes turn blood-red. This spell increases the target's Wounds per Rank to match his enhanced Earth Rank. When the spell expires and the Earth Ring drops back to normal, the target's Wounds also return to normal levels. This can result in death if he has suffered serious damage while under the spell's effects. "}
