{ "name":"Strike of the Flowing Waters",
"ring":"Water",
"mastery":"4",
"range":"10'",
"area":"One target individual (may be the caster)",
"duration":"1 round",
"raises":"Duration (+1 round), Range (+5')",
"description":"Water flows over and through obstacles, and so too can those infused with its energy. The target of this spell may ignore bonuses to his opponents' Armor TN conferred by worn armor, spell  effects of Mastery Level 3 and below, and other nonTechnique mechanical effects. Against non-human creatures who do not wear armor, this allows the target to treat their Armor TN as 5 lower. This spell does not negate the Reduction awarded by armor, nor does it ignore the increase to Armor TN conferred as a result of an individual adopting the Defense or Full Defense Stances. "}
