{ "name":"Summn Undead Champion",
"ring":"Earth",
"mastery":"1",
"range":"100'",
"area":"One humanoid corpse",
"duration":"1 hour",
"raises":"Duration (+1 hour per two Raises), Range (+20' per Raise), Targets (+1 corpse per Raise)",
"description":"This spell is used by maho-tsukai to quickly bring forth undead warriors to protect themselves or slaughter their enemies. It must be cast on a corpse which is within the spells range — it cannot target a living creature. The corpse will be animated by a kansen, rising up and serving the caster as best it can. Mechanically, the animated corpse is considered a zombie (as per the Book of Void, page 331). It obeys any simple commands (such as “kill them” or “wait here”) from the maho-tsukai who summoned it. Complex or conditional orders cannot be understood, and the zombie will simply stand and wait until it is given an order simple enough to understand. Once created, it can move freely beyond the spell's initial range. If the zombie is beheaded or destroyed, it will not re-animate unless the spell is cast again. At the end of the spell's duration, the kansen will depart and the undead creature will collapse to the ground, becoming nothing more than a corpse. "}
