{ "name":"Summon",
"ring":"All",
"mastery":"1",
"range":"30'",
"area":"1 cubic foot of summoned material",
"duration":"Permanent",
"raises":"Range (+10), quantity (+1 cubic foot), composition of material (1-4 Raises, as outlined below)",
"description":"This spell can be cast in any of the four standard elements. It allows the caster to summon a modest quantity (one cubic foot) of the chosen element. The summoned matter appears (usually in a rough ball shape) in any open space within the spell's range. This cannot place the summoned material inside another physical object or living creature. The summoned element will behave in a normal and mundane matter— earth falls to the ground, water soaks anything it lands on, air blows away, and fire winks out unless there is something present for it to burn. In general it is impossible to use this spell effectively in combat, although clever shugenja may find a few modest combat uses, such as using Summon (Fire) to ignite a foe soaked in cooking oil. More commonly, the spell's value is in simpler functions, such as summoning Water while in a desert, or summoning Fire to light a campfire without flint and tinder. Raises may be used with this spell to summon a more specific type of the appropriate element, such as wood or iron with Earth, or tea with Water. The GM should choose how many Raises (generally anywhere from 1 to 4) this requires. However, these Raises cannot be used to create rare/precious materials (such as gold) or spiritually powerful substances (such as jade or crystal). "}
