{ "name":"Tempest of Air",
"ring":"Air",
"mastery":"1",
"keywords":"Thunder",
"range":"Personal",
"area":"A cone 75' long and 15' wide at its end",
"duration":"Instantaneous",
"raises":"Area (+5' to the width of the cone), Damage (+1k0), Range (+5' to the length of the cone), Special (+5 to Air TN against Knockdown per Raise)",
"description":"You summon a powerful gust of air emanating from your position that crashes into all in its path, knocking them to the ground. All targets within the area of effect suffer iki Wounds and must make a Contested Roll using their Earth against your Air. Every target that fails suffers Knockdown. "}
