{ "name":"The False Legion",
"ring":"Air",
"mastery":"6",
"keywords":"Battle, Illusion",
"range":"Personal",
"area":"Within 100' of the caster",
"duration":"Concentration",
"raises":"Area (+ 10'), Special (+5 illusory figures per Raise)",
"description":"The greatest illusory gift of the wind is legion. Within the area of effect of this spell, you can create a number of illusory figures up to your Air Ring x 10. These figures may be as detailed or as vague as you prefer (such as “Crane bushi” versus ‘heavy infantry of the fourth Daidoji legion”), although you must be familiar with their appearance in order for this spell to take effect (you could not, for example, replicate a family mon you have never seen). The figures are fully mobile and will take whatever actions you desire as long as they do not leave the spell's area of effect. They can be seen, heard, or even smelled, but as with most illusions, they cannot physically interact with objects or individuals in any way. "}
