{ "name":"The Kami's Will",
"ring":"Earth",
"mastery":"5",
"keywords":"Defense",
"range":"30'",
"area":"One target creature",
"duration":"10 rounds",
"raises":"Duration (+1 round), Range (+ 10')",
"description":"The counterpoint to The Kami's Strength, this spell infuses one person with the stubbornness and determination of Earth, greatly enhancing their willpower and making them all but immune to the effects of elemental magic. The target of this spell increases his Willpower by an amount equal to the caster's Earth Ring, and any spells (friendly or hostile, but not including Maho spells) which target him suffer a penalty of —XkX to their Spell Casting roll, where X is the caster's Earth Ring. In return, however, the target is made so stubborn and willful that he cannot function properly in a social environment, and suffers a penalty to all Social Skill rolls of —Xk0, where X is the Earth Ring of the caster. "}
