{ "name":"The Fist of Osano-Wo",
"ring":"Fire",
"mastery":"3",
"keywords":"Thunder",
"range":"50'",
"area":"20' radius",
"duration":"1 round",
"raises":"Area of Effect (+10' radius)",
"description":"A more powerful prayer to the Fortune of Thunder, this spell invokes his anger to devastate a targeted area. Massive lightning strikes and vaguely fist-shaped bolts of flame streak from the skies, smiting the area of effect. Weak structures and those easily set on fire (such as most Rokugani homes) are destroyed by the spell's fury, or catch fire and are consumed. The spell has a DR equal to your Fire Ring, inflicting this damage on anyone caught within the area of effect. Using this spell in populated areas is generally considered a criminal act, unless the shugenja can cite extreme circumstances, since fires are terribly dangerous to Rokugani cities. "}
