{ "name":"The Mending Forge",
"ring":"Fire",
"mastery":"4",
"keywords":"Craft",
"range":"Touch",
"area":"One target item",
"duration":"Instantaneous",
"raises":"None",
"description":"This simple and powerful spell has only one function: to call on the creative power of Fire to bring back what has been destroyed. Any damaged or destroyed material item can be restored with this spell, provided all of its pieces are gathered in front of the caster. (If some pieces are missing, the spell will automatically fail.) The spell takes 1 minute to cast, and you must concentrate during that minute. If successful, the spell restores the item to a whole and undamaged state. It should be noted that the Fire kami must work harder to repair items of unusual quality — if you use this spell to repair a nemuranai or an item of Fine quality or better, you must offer the Fire kami a gift (another item for them to burn and destroy) appropriate to the worth of the item. "}
