{ "name":"The Path Not Taken",
"ring":"Water",
"mastery":"4",
"range":"Personal",
"area":"Self",
"duration":"1 day",
"raises":"Special (gain one bonus spell slot per two Raises)",
"description":"No element can match the sheer versatility and adaptability of Water. Prior to casting this spell, you must select one Ring in which you will be temporarily weakened, and one in which you will be temporarily strengthened. Upon the successful conclusion of this spell, you may transfer a number of unused daily spell slots from the weakened Ring to the strengthened Ring. This spell lasts exactly one day, and then the effects are lost. "}
