{ "name":"The Mountain's Feet",
"ring":"Earth",
"mastery":"2",
"keywords":"Defense",
"range":"Personal or 20'",
"area":"One target",
"duration":"1 hour",
"raises":"Duration (+1/2 hour), Targets (+1 per twp Raises)",
"description":"This spell fortifies the target by rooting his feet to the stone and soil beneath, allowing him to shrug off anything thaz might separate him from the touch of Earth. The target gains +3k0 to resist all Knockdown maneuvers, and any spell which seeks to knock down the target, lift him into the air, or otherwise break his connection to the Earth must win a Contested roll of the spell's Element against the caster's Earth. "}
