{ "name":"The Raging Forge",
"ring":"Fire",
"mastery":"1",
"keywords":"Craft",
"range":"Touch",
"area":"One weapon or armor",
"duration":"Instantaneous",
"raises":"None",
"description":"Fire is the element of creation as well as destruction, and a skilled shugenja can use this to great effect. This spell invokes the powers of the forge, mighty and merciless, to remake a material item, such as a weapon or suit of armor, into its perfect form. The target item loses all blemishes, including cracks or nicks. This spell cannot repair an item which has actually been broken or destroyed, however, and it can only affect items that are of ordinary quality. "}
