{ "name":"The Wolf's Mercy",
"ring":"Earth",
"mastery":"3",
"range":"50",
"area":"One target creature",
"duration":"10 rounds",
"raises":"Range (+10), Targets (+1)",
"description":"This spell has existed in Rokugan for centuries, but is best known for its extensive use by Toturi Sezaru, “The Wolf,” who employed it during his hunts for Bloodspeakers. It calls on the power of the Earth to afflict the target, weighing down his body and impeding his muscles, leaving him weak and vulnerable. The target's Earth Ring is lowered by 1 Rank, and his Wound Ranks are reduced correspondingly for the duration of the spell. (This can potentially kill him immediately if he has already suffered Wounds.) In addition, his Strength Rank is also lowered by 1 for the same duration, If the target has at least one full Rank of Shadowlands Taint, the Earth spirits will be filled with wrath, and punish him more severely, lowering his Earth Ring by 2 Ranks (to a minimum of 1). "}
