{ "name":"The Empty Voice",
"ring":"Void",
"mastery":"2",
"range":"Personal",
"area":"Self",
"duration":"5 minutes",
"raises":"None",
"description":"Drawing on the essence of everything allows an Ishiken to invoke the kami with far greater ease than normal. For the duration of this spell, you may cast spells of other elements without speaking your prayers aloud. This applies only to spells of equal or lower Mastery Level (any spell of Mastery Level 1 or 2). "}
