{ "name":"The Soul's Blade",
"ring":"Fire",
"mastery":"6",
"keywords":"Craft",
"range":"Touch",
"area":"One target weapon",
"duration":"5 Rounds",
"raises":"Duration (+1 Round per 3 Raises)",
"description":"This spell imbues incredibly Powerful Fire kami into a weapon, granting it the full fury of a raging firestorm. A bushi armed with this weapon is a terrible opponent, for the Fire spirits shock and daze his enemies with every blow. For the duration of the spell, the weapon will overcome invulnerability, and every target hit with it is automatically Stunned. "}
