{ "name":"The Void's Caress",
"ring":"Void",
"mastery":"1",
"range":"Touch",
"area":"One target individual",
"duration":"1 minute",
"raises":"Duration (+1 minute)",
"description":"Although beginning students of Ishiken-do cannot affect the pattern of the Void, they can make very short-term alterations to it. You may negate any one Mental or Spiritual Disadvantage the target of this spell possesses, up to a maximum of 5 points in value. The Shadowlands Taint may not be removed via this spell, although the mental disorders that can be caused by it can be temporarily alleviated. "}
