{ "name":"Token of Memory",
"ring":"Air",
"mastery":"1",
"keywords":"Craft, Illusion",
"range":"10'",
"area":"One small (1 cubic foot or smaller) illusory object",
"duration":"1 hour",
"raises":"Area (+1 cubic foot in size of illusory object), Duration (+1 hour)",
"description":"You can create a flawless illusion of one object. The item appears real in every way up until the spell expires, at which point it disappears. If you are attempting to create a specific, familiar object, such as another samurai's katana, you must declare one Raise, and that individual may make a Contested Roll using his Perception against the total of your Spell Casting Roll to detect the forgery. Images created by this spell are completely stationary, and if placed in a situation where they must move (such as floating in water), disappear instantly. An image of a katana could be created sitting on a rack, for example, but not in a samurai's obi because it would not be able to move with the samurai. Objects created with this spell have no true physical substance and cannot bear weight or inflict damage. "}
