{ "name":"Touch of Death",
"ring":"Earth",
"mastery":"5",
"keywords":"Maho",
"range":"50'",
"area":"One target creature",
"duration":"Instantaneous",
"raises":"Range (+10' per Raise), Targets (+1 target per 2 Raises)",
"description":"The most dreaded of all maho spells, the Touch of Death ages, blackens, and blights the target. Skin and flesh shrivel and blacken, hair turns gray and falls out, and shattering pains wrack the body. The victim physically ages by 10 years, and suffers 7k7 Wounds. The wounds can be healed normally, but the aging cannot be reversed. A character unfortunate enough to be hit by this spell multiple times (and survive) will be left elderly and decrepit. "}
