{ "name":"Truth is a Scourge",
"ring":"Air",
"mastery":"4",
"keywords":"Maho",
"range":"50'",
"area":"One target person",
"duration":"10 minutes",
"raises":"Duration (+2 minutes per Raise), Range (+10' per Raise), Targets (+1 per Raise)",
"description":"One of the more subtle and psychologically destructive spells in the maho-tsukai's arsenal, this spell causes a kansen to distort the target's thoughts, making it impossible for him to lie. Regardless of what he might intend to say, the target of this spell will find himself telling the truth, no matter how damaging that truth might be to himself, his family and lord, or his Clan.  In fact, he will find himself blurting out any dangerous or damaging secrets he possesses. In order to conceal the truth while under the effects of this spell, the target must make a Willpower roll at TN 30. "}
