{ "name":"Visions of the Future",
"ring":"Water",
"mastery":"3",
"keywords":"Divination",
"range":"Personal",
"area":"Self",
"duration":"1 minute",
"raises":"None",
"description":"Although not as reliable as the natural (if extremely rare) gift of foresight or the (equally rare) Void spells that enable divination, this spell still allows powerful visions of the future. It was first developed by the Tonbo family of the Dragonfly Clan, and is found infrequently outside their ranks. The spell requires use of a large pool of still water into which you must gaze. Upon completion of the spell, you enter a brief trance, and see images of things that have not yet come to pass. These images are rarely direct, and tend to be symbolic (violence is depicted as a scene of battle, for instance), but the events foreseen are completly accurate, and will come to pass unless prevented by your direct intervention. Only the shugenja casting this spell may see the events depicted in the vision. Many shugenj believe that use of this spell is a means of thwarting the natural order, and regard both it and those who make use of it negatively. "}
