{ "name":"Void Strike",
"ring":"Void",
"mastery":"4",
"range":"50'",
"area":"One target individual",
"duration":"Instantaneous",
"raises":"Range (+5'), Special (+1k0 damage per two Raises)",
"description":"The mortal shell can endure only so much direct contact with the Void; too much, and the flesh can be destroyed by the exposure. This spell inflicts damage with a DR equal to your Void Ring. "}
