{ "name":"Water Kami's Blessing",
"ring":"Water",
"mastery":"3",
"range":"Touch",
"area":"One target individual (may be the caster)",
"duration":"5 rounds",
"raises":"Special (your Water Ring is considered one rank higher per two Raises)",
"description":"By calling upon the clarity of water, you can receive tremendous insight into the world around you. The target of this spell receives a bonus to all his Perception based rolls. whether Trait Rolls, Skill Rolls, or anything else, consisting of additional rolled dice equal to your Water Ring. "}
