{ "name":"Wave-Borne Speed",
"ring":"Water",
"mastery":"2",
"keywords":"Travel",
"range":"Personal",
"area":"Self",
"duration":"2 Rounds",
"raises":"None",
"description":"The speed of the river can he imparted by knowledgeable shugenja. Your Water Ring is increased by 2 for the purposes of determining how far you may move as part of any Move Actions made during the present Round or the following Round. "}
