{ "name":"Whispering Wind",
"ring":"Air",
"mastery":"2",
"keywords":"Divination",
"range":"20'",
"area":"Target individual",
"duration":"Instantaneous",
"raises":"Range (+5')",
"description":"The air kami see very little difference between speech and thought, and can perceive both with relative ease. By comparing the two, the kami can determine if what has been spoken is true, or a lie. Unfortunately, they have notoriously short attention spans, and thus can only assess extremely recent conversations. By invoking this spell, you may determine if the last thing said by the target was true or false. The kami have no concept of personal opinion, however, and if the target truly believes what he said was true, the kami will believe it as well. "}
