{ "name":"Wholeness of the World",
"ring":"Earth",
"mastery":"2",
"keywords":"Defense",
"range":"Personal or 20'",
"area":"One target creature",
"duration":"10 minutes",
"raises":"Duration (+1 minute), Range (+5'), Targets (+1 per two Raises)",
"description":"This spell infuses the target with the strength of Earth to such a degree that his Rings and Traits become whoily resistant to any effort to change them. Any physical or magical effect which would raise or lower his Traits or Rings is completely ineffective for the duration of this spell, as the Earth kami firmly rebuff any such efforts to alter the target's Elernental balance. "}
