{ "name":"Witness the Untold",
"ring":"Void",
"mastery":"1",
"keywords":"Divination",
"range":"15'",
"area":"One target individual",
"duration":"3 rounds",
"raises":"Range (+5')",
"description":"It is possible to gain fleeting glimpses of things that have not yet happened by peering through the Void. If you ar delaying your action, you may interrupt the target of this spell after he has declared his action but before he has taken his action when his Turn comes up. This may be done during each Round for the duration of the spell. (Normally someone delaying their Action cannot interrupt the Action of another participant.) "}
