{ "name":"Wrath of Kaze-no-Kami (Hurricane)",
"ring":"Air",
"mastery":"6",
"keywords":"Thunder",
"range":"Personal",
"area":"1 mile radius, centered on the caster",
"duration":"Concentration (special)",
"raises":"None",
"description":"The wrath of the air kami, and of the Fortune of the Wind, is truly dreadful to behold. In casting this spell, you unleash the full force of a hurricane upon your enemies. When the spell takes effect, you are standing in the eye of the storm, a zone radiating twenty feet in every direction from you, and in which no ill effects of the spell are suffered. Outside the eye, however, the brutal effects of the storm tear at everything in its path. Objects weighing less than five hundred pounds are lifted by the wind and tossed into the storm. Individuals in this area must hold on to something immobile or be cast into the winds to their certain death. Everyone within the affected region who does not have sturdy shelter suffers 1k1 Wounds per minute from the winds and minor debris. There is a one in ten chance each minute that an exposed individual will instead suffer 5k5 Wounds due to being struck by a wind-borne object. This spell lasts for a maximum of one hour, although it can last far shorter times if you are disrupted while maintaining the spell. This spell may not be cast in a given area more than once per month, as it completely exhausts the favors of the air kami to perform it. "}
