{ "name":"Your Heart's Enemy",
"ring":"Air",
"mastery":"3",
"keywords":"Illusion",
"range":"25'",
"area":"One target individual",
"duration":"5 rounds",
"raises":"Duration (+1 round), Range (+5')",
"description":"The kami can see into the hearts of mortals, and can use that information at a shugenja's request. You manifest the kami as an illusion of the thing your target fears most in the world. It may be an individual (the man who killed his father), or an item (a cursed blade that brought ruin to his family), or even a vista of some sort (an image of an enemy slaying his family). This effectively generates Fear 4 that the target must overcome (see the Book of Earth for rules regarding Fear). Only the target can see the specifics of the illusion; others see only a hazy outline that appears to be a small fog cloud. "}
